…
#Argument ist der melttable_NummerX


join_and_calc<-function(x){
  s<-as.character(substitute(x))
  x%>%
    inner_join(select(metatable77, -Tray.Info),
               by="Plant.ID")%>%group_by(variable, condition)%>%
    summarise_at(vars(value), list(mean=mean, sd=sd))%>%
    mutate(Run=paste0("Run_", str_extract_all(s, "\\d+")))}


#output
 join_and_calc(melt_tableAll8)
# A tibble: 86 × 5
# Groups:   variable [43]
#   variable condition         mean      sd Run  
#   <fct>    <chr>            <dbl>   <dbl> <chr>
# 1 RGB.34   Control        52955.  23831.  Run_8
# 2 RGB.34   Drought_stress 41247.  15711.  Run_8
# 3 X38      Control        21565.   9801.  Run_8
# 4 X38      Drought_stress 15148.   8921.  Run_8
# 5 X22.     Control        12108.   7904.  Run_8
# 6 X22.     Drought_stress  8851.   7359.  Run_8
# 7 RGB.45   Control          140.    122.  Run_8
# 8 RGB.45   Drought_stress    83.9    88.1 Run_8
# 9 X54      Control         1467.   1402.  Run_8
#10 X54      Drought_stress  1300.   2140.  Run_8
# ℹ 76 more rows
# ℹ Use `print(n = ...)` to see more rows
…
